HW6
…
2. Parse the response

response_content <- fromJSON(rawToChar(response$content), flatten = TRUE)

articles <- pluck(response_content, "articles")

articles_df <- as_tibble(articles)
articles_df

# A tibble: 100 × 9
   author       title description url   urlToImage publishedAt content source.id
   <chr>        <chr> <chr>       <chr> <chr>      <chr>       <chr>   <chr>    
 1 Gizmodo      Firs… Sending a … http… https://g… 2024-10-11… "Robor… <NA>     
 2 Gizmodo      From… Roborock's… http… https://g… 2024-10-02… "Robor… <NA>     
 3 Joe Tilleli  Unbe… No need to… http… https://g… 2024-10-07… "Amazo… <NA>     
 4 <NA>         Musk… BBC Tech C… http… https://i… 2024-10-12… "Elon … <NA>     
 5 Rob Reddick  Form… Since laun… http… https://m… 2024-10-02… "What … wired    
 6 Juli Clover  Appl… Apple toda… http… https://i… 2024-10-07… "Apple… <NA>     
 7 Verity Burns Nint… Nintendo’s… http… https://m… 2024-10-09… "Of al… wired    
 8 Seth Godin   Yes,… I worked w… http… https://s… 2024-10-05… "I wor… <NA>     
 9 Abigail Bas… Hond… Honda’s ne… http… https://c… 2024-10-08… "Image… the-verge
10 Gizmodo Dea… To P… This air p… http… https://g… 2024-10-06… "Prime… <NA>     
# ℹ 90 more rows
# ℹ 1 more variable: source.name <chr>
…
  if (http_status(response)$category != "Success") {
    stop("API Request Failed")
  }
  
  response_content <- fromJSON(rawToChar(response$content), flatten = TRUE)
  
  articles <- pluck(response_content, "articles")
  
  as_tibble(articles)
}

tech <- queryNewsAPI("technology", "2024-10-01", api_key)
tech

# A tibble: 100 × 9
   author       title description url   urlToImage publishedAt content source.id
   <chr>        <chr> <chr>       <chr> <chr>      <chr>       <chr>   <chr>    
 1 Gizmodo      Firs… Sending a … http… https://g… 2024-10-11… "Robor… <NA>     
 2 Gizmodo      From… Roborock's… http… https://g… 2024-10-02… "Robor… <NA>     
 3 Joe Tilleli  Unbe… No need to… http… https://g… 2024-10-07… "Amazo… <NA>     
 4 <NA>         Musk… BBC Tech C… http… https://i… 2024-10-12… "Elon … <NA>     
 5 Rob Reddick  Form… Since laun… http… https://m… 2024-10-02… "What … wired    
 6 Juli Clover  Appl… Apple toda… http… https://i… 2024-10-07… "Apple… <NA>     
 7 Verity Burns Nint… Nintendo’s… http… https://m… 2024-10-09… "Of al… wired    
 8 Seth Godin   Yes,… I worked w… http… https://s… 2024-10-05… "I wor… <NA>     
 9 Abigail Bas… Hond… Honda’s ne… http… https://c… 2024-10-08… "Image… the-verge
10 Gizmodo Dea… To P… This air p… http… https://g… 2024-10-06… "Prime… <NA>     
# ℹ 90 more rows
# ℹ 1 more variable: source.name <chr>

health <- queryNewsAPI("health", "2024-10-01", api_key)
health

# A tibble: 100 × 9
   author       title description url   urlToImage publishedAt content source.id
   <chr>        <chr> <chr>       <chr> <chr>      <chr>       <chr>   <chr>    
 1 Adrienne So  Oura… Oura’s upd… http… ""         2024-10-03… "In th… wired    
 2 Adam Kovac   Why … When pater… http… "https://… 2024-10-10… "Some … <NA>     
 3 <NA>         Leba… The World … http… "https://… 2024-10-05… "At le… <NA>     
 4 <NA>         Scot… Health Sec… http… "https://… 2024-10-01… "Healt… <NA>     
 5 <NA>         Jail… The Sunday… http… "https://… 2024-10-06… "A dis… <NA>     
 6 <NA>         Resc… The attack… http… "https://… 2024-10-11… "Distr… <NA>     
 7 Gizmodo Dea… Amaz… This air p… http… "https://… 2024-10-08… "The B… <NA>     
 8 <NA>         Radi… He will st… http… "https://… 2024-10-06… "The B… <NA>     
 9 <NA>         Isra… Dozens wer… http… "https://… 2024-10-06… "The H… <NA>     
10 Gizmodo Dea… To P… This air p… http… "https://… 2024-10-06… "Prime… <NA>     
# ℹ 90 more rows
# ℹ 1 more variable: source.name <chr>
…
5. publishedAt column

getTimeBetweenArticles <- function(article) {
  article |>
    mutate(publishedAt = ymd_hms(publishedAt)) |>  
    arrange(publishedAt) |>  
    mutate(pub_diff = publishedAt - lag(publishedAt)) 
}

my_tech <- tech |> getTimeBetweenArticles()

my_tech |> select(publishedAt, pub_diff, everything())

# A tibble: 100 × 10
   publishedAt         pub_diff   author      title description url   urlToImage
   <dttm>              <drtn>     <chr>       <chr> <chr>       <chr> <chr>     
 1 2024-10-01 04:32:32    NA secs Kwan Wei K… Mark… "Zuckerber… http… https://i…
 2 2024-10-01 09:55:00 19348 secs Jason Barl… Bent… "The addit… http… https://m…
 3 2024-10-01 14:00:00 14700 secs Jay Peters  Fort… "Developer… http… https://c…
 4 2024-10-01 16:21:11  8471 secs Gizmodo De… Amaz… "Dive into… http… https://g…
 5 2024-10-01 17:14:52  3221 secs Lisa Erick… How … "The owner… http… https://g…
 6 2024-10-01 18:59:20  6268 secs Jennifer P… Slee… "The compa… http… https://c…
 7 2024-10-01 20:26:58  5258 secs Gizmodo De… Gala… "Samsung i… http… https://g…
 8 2024-10-02 04:00:36 27218 secs Lauren Fei… JD V… "What Sen.… http… https://c…
 9 2024-10-02 05:00:37  3601 secs Heidi Ulri… BBC … "The BBC M… http… https://h…
10 2024-10-02 08:00:00 10763 secs Rob Reddick Form… "Since lau… http… https://m…
# ℹ 90 more rows
# ℹ 3 more variables: content <chr>, source.id <chr>, source.name <chr>

my_health <- health |> getTimeBetweenArticles()

my_health |> select(publishedAt, pub_diff, everything())

# A tibble: 100 × 10
   publishedAt         pub_diff  author       title description url   urlToImage
   <dttm>              <drtn>    <chr>        <chr> <chr>       <chr> <chr>     
 1 2024-10-01 09:49:49   NA secs <NA>         Scot… "Health Se… http… https://i…
 2 2024-10-01 11:30:00 6011 secs Gary Stix    Near… "Myopia is… http… https://s…
 3 2024-10-01 11:48:00 1080 secs Tommy Greene Hurr… "Downpours… http… https://m…
 4 2024-10-01 12:15:52 1672 secs Gizmodo Dea… Bett… "Looking t… http… https://g…
 5 2024-10-01 14:30:26 8074 secs <NA>         Labo… "Local MP … http… https://i…
 6 2024-10-01 16:25:06 6880 secs Sarah  Cutl… Offi… "The offic… http… https://m…
 7 2024-10-01 18:26:34 7288 secs Sri Muppidi… Excl… "Roon is r… http… https://i…
 8 2024-10-01 20:41:49 8115 secs Ed Cara      Inva… "Scientist… http… https://g…
 9 2024-10-01 20:59:17 1048 secs Mary Kekatos Supp… "Supply ch… http… https://i…
10 2024-10-01 21:02:39  202 secs Juli Clover  Appl… "Apple wil… http… https://i…
# ℹ 90 more rows
# ℹ 3 more variables: content <chr>, source.id <chr>, source.name <chr>
…
